^C:\Users\Ibrahim\Desktop\API2\API\API.vcxproj
C:\Users\Ibrahim\Desktop\API2\Release\API.ipdb
C:\Users\Ibrahim\Desktop\API2\Release\API.iobj
^C:\Users\Ibrahim\Desktop\API2\API\API.vcxproj
C:\Users\Ibrahim\Desktop\API2\Release\API.ipdb
C:\Users\Ibrahim\Desktop\API2\Release\API.iobj
^C:\Users\Ibrahim\Desktop\API2\API\API.vcxproj
C:\Users\Ibrahim\Desktop\API2\Release\API.ipdb
C:\Users\Ibrahim\Desktop\API2\Release\API.iobj
