^C:\USERS\IBRAHIM\DESKTOP\API2\API\STDAFX.CPP
C:\USERS\IBRAHIM\DESKTOP\API2\API\RELEASE\API.PCH
C:\USERS\IBRAHIM\DESKTOP\API2\API\RELEASE\VC141.PDB
C:\USERS\IBRAHIM\DESKTOP\API2\API\RELEASE\STDAFX.OBJ
^C:\USERS\IBRAHIM\DESKTOP\API2\API\API.CPP
C:\USERS\IBRAHIM\DESKTOP\API2\API\RELEASE\VC141.PDB
C:\USERS\IBRAHIM\DESKTOP\API2\API\RELEASE\API.OBJ
